{
    "wallpaper": "/home/japorized/.config/wpg/wallpapers/key20th_anniv_cloudbg.jpg",
    "alpha": "100",

    "special": {
        "background": "#666666",
        "foreground": "#dddddd",
        "cursor": "#dddddd"
    },
    "colors": {
        "color0": "#666666",
        "color1": "#ff8278",
        "color2": "#bde077",
        "color3": "#eadc84",
        "color4": "#77bee0",
        "color5": "#dd91f3",
        "color6": "#ffc178",
        "color7": "#dddddd",
        "color8": "#888888",
        "color9": "#ff8278",
        "color10": "#bde077",
        "color11": "#eadc84",
        "color12": "#77bee0",
        "color13": "#dd91f3",
        "color14": "#ffc178",
        "color15": "#dddddd"
    }
}
