{
    "wallpaper": "/home/japorized/.config/wpg/wallpapers/wp9573885-inazuma-genshin-impact-wallpapers.jpg",
    "alpha": "100",

    "special": {
        "background": "#222222",
        "foreground": "#d4d4d4",
        "cursor": "#d4d4d4"
    },
    "colors": {
        "color0": "#222222",
        "color1": "#c93232",
        "color2": "#507743",
        "color3": "#a99264",
        "color4": "#437caf",
        "color5": "#8e5f99",
        "color6": "#45a4b6",
        "color7": "#898989",
        "color8": "#808080",
        "color9": "#f44747",
        "color10": "#608b4e",
        "color11": "#d7ba7d",
        "color12": "#569cd6",
        "color13": "#a972b7",
        "color14": "#4eb3c9",
        "color15": "#d4d4d4"
    }
}
