{
    "wallpaper": "/home/japorized/.config/wpg/wallpapers/waiting_girl_turquoise.png",
    "alpha": "100",

    "special": {
        "background": "#1b181b",
        "foreground": "#f7f3f7",
        "cursor": "#f7f3f7"
    },
    "colors": {
        "color0": "#1b181b",
        "color1": "#ca402b",
        "color2": "#918b3b",
        "color3": "#bb8a35",
        "color4": "#516aec",
        "color5": "#7b59c0",
        "color6": "#159393",
        "color7": "#ab9bab",
        "color8": "#776977",
        "color9": "#ca402b",
        "color10": "#918b3b",
        "color11": "#bb8a35",
        "color12": "#516aec",
        "color13": "#7b59c0",
        "color14": "#159393",
        "color15": "#f7f3f7"
    }
}
