{
    "wallpaper": "/home/japorized/.config/wpg/wallpapers/wp9573885-inazuma-genshin-impact-wallpapers.jpg",
    "alpha": "100",

    "special": {
        "background": "#0f080c",
        "foreground": "#f6e4ee",
        "cursor": "#f6e4ee"
    },
    "colors": {
        "color0": "#0f080c",
        "color1": "#6c667f",
        "color2": "#3287b3",
        "color3": "#1f4272",
        "color4": "#2962af",
        "color5": "#517ed8",
        "color6": "#47c6e4",
        "color7": "#b8abb2",
        "color8": "#301826",
        "color9": "#8475b3",
        "color10": "#32b4f7",
        "color11": "#1e549d",
        "color12": "#277df1",
        "color13": "#559dff",
        "color14": "#48ffff",
        "color15": "#f6e4ee"
    }
}
